{
  "key": "atlassian-connect-demo-cacheable-iframe",
  "name": "Atlassian Connect Demo - Cacheable app iframes",
  "description": "A demo of cacheable app iframes",
  "vendor": {
    "name": "Atlassian",
    "url": "https://www.atlassian.com"
  },
  "baseUrl": "{{localBaseUrl}}",
  "links": {
    "self": "{{localBaseUrl}}/atlassian-connect.json",
    "homepage": "{{localBaseUrl}}/atlassian-connect.json"
  },
  "authentication": {
    "type": "jwt"
  },
  "lifecycle": {
    "installed": "/installed"
  },
  "scopes": [
    "READ"
  ],
  "modules": {
    "generalPages": [
      {
        "key": "cacheable-iframes-guide-page",
        "cacheable": true,
        "url": "/cacheable-iframes-guide",
        "name": {
          "value": "Cacheable Apps Guide"
        },
        "location": "system.space.sidebar/main-links",
        "icon": {
          "width": 80,
          "height": 80,
          "url": "/ACJS.png"
        }
      }
    ],
    "webPanels": [
      {
        "key": "cacheable-iframes-guide-panel",
        "cacheable": true,
        "url": "/cacheable-iframes-guide?hideHideables=true",
        "name": {
          "value": "Cacheable Apps Panel"
        },
        "location": "atl.jira.view.issue.right.context",
        "weight": 0
      }
    ],
    "dialogs": [
      {
        "key": "cacheable-dialog",
        "cacheable": true,
        "url": "/generic-dialog",
        "options": {
          "size": "large",
          "header": {
            "value": "Cacheable Dialog"
          }
        }
      }, {
        "key": "non-cacheable-dialog",
        "url": "/generic-dialog?space-key={space.key}&content-type={content.type}&user-key={user.key}",
        "options": {
          "size": "large",
          "header": {
            "value": "Non-cacheable Dialog"
          }
        }
      }
    ],
    "webItems": [
      {
        "key": "cacheable-iframes-guide-system-content-menu-item",
        "location": "system.content.action/modify",
        "weight": 200,
        "styleClasses": [
          "webitem",
          "system-present-webitem"
        ],
        "url": "cacheable-iframes-guide-page",
        "context": "page",
        "target": {
          "type": "page",
          "options": {
            "key": "cacheable-iframes-guide-page"
          }
        },
        "name": {
          "value": "Cacheable app iframes guide"
        }
      }, {
        "key": "cacheable-iframes-guide-system-header-menu-item",
        "name": {
          "value": "Cacheable app iframes guide"
        },
        "location": "system.top.navigation.bar",
        "weight": 200,
        "styleClasses": [
          "webitem",
          "system-present-webitem"
        ],
        "url": "cacheable-iframes-guide-page",
        "context": "page",
        "target": {
          "type": "page",
          "options": {
            "key": "cacheable-iframes-guide-page"
          }
        }
      }, {
        "key": "non-cacheable-web-item-targeting-dialog",
        "name": {
          "value": "Non-cacheable web item -> dialog"
        },
        "location": "system.top.navigation.bar",
        "weight": 210,
        "cacheable": false,
        "url": "/generic-dialog",
        "context": "addon",
        "target": {
          "type": "dialog",
          "options": {
            "header": {
              "value": "Non-cacheable Dialog"
            }
          }
        }
      }, {
        "key": "cacheable-web-item-targeting-dialog",
        "name": {
          "value": "Cacheable web item -> dialog"
        },
        "location": "system.top.navigation.bar",
        "weight": 211,
        "cacheable": true,
        "url": "/generic-dialog",
        "context": "addon",
        "target": {
          "type": "dialog",
          "options": {
            "header": {
              "value": "Cacheable Dialog"
            }
          }
        }
      }, {
        "key": "non-cacheable-web-item-targeting-inline-dialog",
        "name": {
          "value": "Non-cacheable web item -> inline dialog"
        },
        "location": "system.top.navigation.bar",
        "weight": 220,
        "cacheable": false,
        "url": "/generic-dialog",
        "context": "addon",
        "target": {
          "type": "inlinedialog",
          "options": {
            "width": "900px"
          }
        }
      }, {
        "key": "cacheable-web-item-targeting-inline-dialog",
        "name": {
          "value": "Cacheable web item -> inline dialog"
        },
        "location": "system.top.navigation.bar",
        "weight": 221,
        "cacheable": true,
        "url": "/generic-dialog",
        "context": "addon",
        "target": {
          "type": "inlinedialog",
          "options": {
            "width": "900px"
          }
        }
      }, {
        "key": "web-item-targeting-non-cacheable-dialogModule",
        "name": {
          "value": "Non-cacheable web item -> non-cacheable dialogmodule"
        },
        "location": "system.top.navigation.bar",
        "weight": 230,
        "context": "addon",
        "target": {
          "type": "dialogmodule",
          "options": {
            "key": "non-cacheable-dialog"
          }
        }
      }, {
        "key": "web-item-targeting-cacheable-dialogModule",
        "name": {
          "value": "Web item -> cacheable dialogmodule"
        },
        "location": "system.top.navigation.bar",
        "weight": 231,
        "context": "addon",
        "target": {
          "type": "dialogmodule",
          "options": {
            "key": "cacheable-dialog"
          }
        }
      }, {
        "key": "open-cacheable-iframe-guide-project-context",
        "cacheable": true,
        "name": {
          "value": "Cacheable iframe guide"
        },
        "location": "jira.project.sidebar.navigation",
        "weight": 100,
        "url": "/generic-dialog?hideHideables=true",
        "context": "addon",
        "target": {
          "type": "dialog",
          "options": {
            "header": {
              "value": "Cacheable iframes"
            }
          }
        }
      }
    ]
  }
}
